{
    "users": [
        {
            "email": "andie.similon@ap.be",
            "password": "test",
            "fullName": "Andie Similon",
            "profile": "andie.jpeg"
        },
        {
            "email": "joske.vermeulen@ap.be",
            "password": "test",
            "fullName": "joske vermeulen",
            "profile": null
        }
    ]
}